{
    "name": "jg/member-complete",
    "title": "Member Complete",
    "description":  "Allow activity completion by member",
    "icon": "saved",
    "category": "common",
    "keywords": [ "jensen", "wa", "roadtonaig" ],
    "attributes": {
         "align": { "type": "string", "default": "left" },
         "backgroundColor": { "type": "string", "default": false },
         "textColor": { "type": "string", "default": false },
        "completeType": {
            "type": "string",
            "default": "initial-fitness"
        },
        "type": {
            "type": "string",
            "default": "completed_training"
        }
    },
    "supports": {
        "customClassName": true,
        "align": false
    }
}
