{
    "name": "jg/content-visibility",
    "category": "common",
    "title": "Variable Visibility",
    "description": "Show only to certain users",
    "keywords": [ "jensen", "wa", "roadtonaig" ],
    "icon": "welcome-view-site",
    "attributes": {
        "userOnly": {
            "type": "boolean",
            "default": false
        },
        "timeRestrictionLabel": {
            "type": "string",
            "default": ""
        },
        "adminOnly": {
            "type": "boolean",
            "default": false
        },
        "restrictGlobal": {
            "type": "boolean",
            "default": false
        },
        "restrictCustomStart": {
            "type": "boolean",
            "default": false
        },
        "restrictCustomEnd": {
            "type": "boolean",
            "default": false
        },
        "dateStart": {
            "type": "string",
            "default": false
        },
        "dateEnd": {
            "type": "string",
            "default": false
        },
        "backgroundColor": {
            "type": "string",
            "default": "white"
        },
        "textColor": {
            "type": "string",
            "default": "black"
        },
        "align": {
            "type": "string",
            "default": "full"
        }
    },
    "supports": {
        "customClassName": true,
        "align": [ "center", "wide" ]
    }
}
