<svg width="16px" height="16px" viewBox="0 0 16 16" version="1.1" xmlns="http://www.w3.org/2000/svg" xmlns:xlink="http://www.w3.org/1999/xlink">
    <path d="M10.029801,10.9162684 L7.46584185,10.9162684 L7.46584185,10.8857451 L7.19113195,10.9467917 C6.48909553,11.068885 5.97019905,11.6793514 5.97019905,12.4119112 C5.97019905,13.1444709 6.48909553,13.7549374 7.19113195,13.8770307 L7.40479521,13.907554 L7.40479521,15.8 L7.86264505,15.8 L7.86264505,11.3741182 L8.7478214,11.3741182 L8.7478214,15.8 L9.20567124,15.8 L9.20567124,11.3741182 L10.029801,11.3741182 L10.029801,10.9162684 Z" fill="#000000" fill-rule="nonzero"></path>
    <rect fill="#000000" x="0" y="0" width="16" height="8.7"></rect>
    <path d="M8.85340895,3.42311997 C8.91645801,3.42311997 8.96756937,3.3720083 8.96756937,3.30895924 C8.96903751,3.0496131 9.16680467,2.83358339 9.42501312,2.80927346 C9.487778,2.80361626 9.53415459,2.74827513 9.52874671,2.68548827 C9.52240291,2.62316025 9.46772673,2.57712338 9.40522888,2.58148732 C9.0292848,2.6169068 8.7412984,2.93135744 8.73898117,3.30895924 C8.73898117,3.33928284 8.75104536,3.36836058 8.77251245,3.38977752 C8.79397954,3.41119445 8.82308542,3.42319067 8.85340895,3.42311997 L8.85340895,3.42311997 Z" fill="#FFFFFF" fill-rule="nonzero"></path>
    <path d="M9.44747091,4.58023044 C10.1612825,4.57978754 10.7396235,4.00084816 10.7393284,3.28703649 C10.7390331,2.57322482 10.1602134,1.99476403 9.44640165,1.99491154 C8.73258994,1.99505911 8.15400927,2.57375914 8.15400927,3.28757087 C8.15459945,4.00155561 8.73348593,4.58008314 9.44747091,4.58023044 L9.44747091,4.58023044 Z M8.4890046,3.09266935 C8.59130604,2.5884815 9.06691636,2.24989419 9.57681604,2.31825565 C10.0867157,2.38661712 10.4563456,2.83852449 10.4222301,3.35185392 C10.3881145,3.86518335 9.96193266,4.26420158 9.44747091,4.26449212 C9.15371848,4.26563444 8.87511195,4.13425031 8.68912929,3.906869 C8.50314663,3.67948769 8.42962298,3.38035952 8.4890046,3.09266935 L8.4890046,3.09266935 Z" fill="#FFFFFF" fill-rule="nonzero"></path>
    <path d="M10.6329213,4.94062446 C10.3005995,4.95506161 9.98966607,5.31812918 10.1276211,5.66408606 C10.3046098,6.10869679 9.83540246,6.30894539 9.50281331,6.01993505 C9.17022417,5.73092471 7.0380711,3.75303526 7.0380711,3.75303526 C7.0380711,3.75303526 6.8936996,3.61588234 6.67607295,3.40681103 C6.4996189,3.23971439 6.0536714,2.81381849 5.85208602,2.62292729 C5.65397625,2.43577906 5.21310848,2.02084469 5.04734862,1.86711579 C4.96366662,1.79118708 4.64631669,1.50110732 4.59926228,1.46341032 C4.20063655,1.1294844 3.75762995,1.59655292 4.15652304,2.04116364 C4.20999396,2.10185314 4.58054746,2.49352766 4.75994241,2.68281472 C4.91768163,2.84964401 5.34170605,3.29372002 5.54141995,3.50225663 C5.72028019,3.68940486 6.15125583,4.13668913 6.3464247,4.33961129 C7.70244732,5.74643128 8.22138263,6.25092944 8.7205337,6.70623436 C9.7803274,7.67298865 10.7791643,7.22597173 11.1411624,6.48593415 C11.4553041,5.84401572 11.1636202,4.91843403 10.6329213,4.94062446 Z" fill="#FFFFFF" fill-rule="nonzero"></path>
</svg>