{
   "name": "jg/member-upload",
   "category": "common",
   "title":  "Member Upload",
   "description": "Allow uploading of files by member" ,
   "icon": "universal-access",
   "category": "common",
   "keywords": [ "jensen", "wa", "roadtonaig" ],
   "attributes": {
    "blockId": {
       "type": "string"
     }
   },
   "supports": {
     "customClassName": true,
     "align": false
   }
}
